{
    "items": [
        {"name": "Anorak", "id": 0, "holding": 0, "weight": 1.3, "volume": 4},
        {"name": "Byxor", "id": 1, "holding": 0, "weight": 0.78, "volume": 0.87},
        {"name": "Citronpress", "id": 2, "holding": 0, "weight": 0.45, "volume": 0.9},
        {"name": "Damsadel", "id": 3, "holding": 0, "weight": 22, "volume": 40},
        {"name": "Espressokopp", "id": 4, "holding": 0, "weight": 0.08, "volume": 0.1},
        {"name": "Fru", "id": 5, "holding": 0, "weight": 65, "volume": 65},
        {"name": "Glödlampa", "id": 6, "holding": 0, "weight": 0.07, "volume": 0.08},
        {"name": "Häst", "id": 7, "holding": 0, "weight": 300, "volume": 300},
        {"name": "Ismaskin", "id": 8, "holding": 0, "weight": 4, "volume": 12},
        {"name": "Regnbyxor", "id": 9, "holding": 0, "weight": 0.49, "volume": 0.4},
        {"name": "Shorts", "id": 10, "holding": 0, "weight": 0.25, "volume": 0.35},
        {"name": "Strumpor", "id": 11, "holding": 0, "weight": 0.05, "volume": 0.12},
        {"name": "T-shirt", "id": 12, "holding": 0, "weight": 0.2, "volume": 0.3},
        {"name": "Tröja", "id": 13, "holding": 0, "weight": 0.55, "volume": 0.6},
        {"name": "Tändare", "id": 14, "holding": 0, "weight": 0.01, "volume": 0.015},
        {"name": "Underkläder", "id": 15, "holding": 0, "weight": 0.04, "volume": 0.1},
        {"name": "Vattenflaska", "id": 16, "holding": 0, "weight": 0.2, "volume": 1}
    ]
}